Emerging Hot Spot Analysis — emerging_hotspot_analysis • sfdep
…
# Create spacetime object called `bos`
bos <- spacetime(df, geo,
                 .loc_col = ".region_id",
                 .time_col = "time_period")

# conduct EHSA
ehsa <- emerging_hotspot_analysis(
  x = bos,
  .var = "value",
  k = 1,
  nsim = 9
)

ehsa
#> # A tibble: 168 × 4
#>    location       tau p_value classification     
#>    <chr>        <dbl>   <dbl> <chr>              
#>  1 25025010405  0.111  0.721  no pattern detected
#>  2 25025010404 -0.333  0.210  no pattern detected
#>  3 25025010801 -0.200  0.474  no pattern detected
#>  4 25025010702 -0.600  0.0200 no pattern detected
#>  5 25025010204 -0.467  0.0736 no pattern detected
#>  6 25025010802 -0.333  0.210  no pattern detected
#>  7 25025010104 -0.333  0.210  no pattern detected
#>  8 25025000703 -0.600  0.0200 no pattern detected
#>  9 25025000504 -0.333  0.210  no pattern detected
#> 10 25025000704 -0.422  0.107  no pattern detected
#> # … with 158 more rows
…
