Local Neighbor Match Test — nb_match_test • sfdep
…
    Examples

library(magrittr)
guerry %>%
  dplyr::transmute(nb = st_knn(geometry, k = 10),
         nmt = nb_match_test(list(crime_pers, literacy, suicides),
                             nb, nsim = 999)) %>%
  tidyr::unnest(nmt)
#> ! Polygon provided. Using point on surface.
#> Simple feature collection with 85 features and 6 fields
#> Geometry type: MULTIPOLYGON
#> Dimension:     XY
#> Bounding box:  xmin: 47680 ymin: 1703258 xmax: 1031401 ymax: 2677441
#> CRS:           NA
#> # A tibble: 85 × 7
#>    nb         n_shared nb_matches knn_nb proba…¹ p_sim                  geometry
#>    <nb>          <int> <list>     <list>   <dbl> <dbl>            <MULTIPOLYGON>
#>  1 <int [10]>        1 <int [1]>  <int>  0.400   0.662 (((801150 2092615, 80066…
#>  2 <int [10]>        3 <int [3]>  <int>  0.0782  0.087 (((729326 2521619, 72932…
#>  3 <int [10]>        5 <int [5]>  <int>  0.00147 0.001 (((710830 2137350, 71174…
#>  4 <int [10]>        4 <int [4]>  <int>  0.0141  0.015 (((882701 1920024, 88240…
#>  5 <int [10]>        0 <int [0]>  <int>  0.260   0.262 (((886504 1922890, 88573…
#>  6 <int [10]>        0 <int [0]>  <int>  0.260   0.264 (((747008 1925789, 74663…
#>  7 <int [10]>        5 <int [5]>  <int>  0.00147 0.003 (((818893 2514767, 81861…
#>  8 <int [10]>        5 <int [5]>  <int>  0.00147 0.004 (((509103 1747787, 50882…
#>  9 <int [10]>        3 <int [3]>  <int>  0.0782  0.085 (((775400 2345600, 77506…
#> 10 <int [10]>        4 <int [4]>  <int>  0.0141  0.016 (((626230 1810121, 62626…
#> # … with 75 more rows, and abbreviated variable name ¹​probability
…
