The spacetime s3 class • sfdep
…
# replicate the guerry dataset 10 times
x <- purrr::map_dfr(1:10, ~guerry) |> 
  select(code_dept, crime_pers) |> 
         # create an indicator for time period
  mutate(time_period = sort(rep(1:85, 10)), 
         # add some noise 
         crime_pers = crime_pers * runif(850, max = 2))

x
#> Simple feature collection with 850 features and 3 fields
#> Geometry type: MULTIPOLYGON
#> Dimension:     XY
#> Bounding box:  xmin: 47680 ymin: 1703258 xmax: 1031401 ymax: 2677441
#> CRS:           NA
#> # A tibble: 850 × 4
#>    code_dept crime_pers                                     geometry time_period
#>  * <fct>          <dbl>                               <MULTIPOLYGON>       <int>
#>  1 01            56157. (((801150 2092615, 800669 2093190, 800688 2…           1
#>  2 02              773. (((729326 2521619, 729320 2521230, 729280 2…           1
#>  3 03            52360. (((710830 2137350, 711746 2136617, 712430 2…           1
#>  4 04            18951. (((882701 1920024, 882408 1920733, 881778 1…           1
#>  5 05            28970. (((886504 1922890, 885733 1922978, 885479 1…           1
#>  6 07            14078. (((747008 1925789, 746630 1925762, 745723 1…           1
#>  7 08             2686. (((818893 2514767, 818614 2514515, 817900 2…           1
#>  8 09             2133. (((509103 1747787, 508820 1747513, 508154 1…           1
#>  9 10            27098. (((775400 2345600, 775068 2345397, 773587 2…           1
#> 10 11            17574. (((626230 1810121, 626269 1810496, 627494 1…           1
#> # … with 840 more rows

This representation, where there are duplicate geometries for each location, should be cast into a spacetime object using as_spacetime().

spt <- as_spacetime(x, "code_dept", "time_period")

Spacetime Contexts

The data context

activate(spt, "data")
#> # A tibble: 850 × 3
#>    code_dept crime_pers time_period
#>  * <fct>          <dbl>       <int>
#>  1 01            56157.           1
#>  2 02              773.           1
#>  3 03            52360.           1
#>  4 04            18951.           1
#>  5 05            28970.           1
#>  6 07            14078.           1
#>  7 08             2686.           1
#>  8 09             2133.           1
#>  9 10            27098.           1
#> 10 11            17574.           1
#> # … with 840 more rows

The geometry context

spt |> 
  activate("geometry") 
#> Simple feature collection with 85 features and 1 field
#> Geometry type: MULTIPOLYGON
#> Dimension:     XY
#> Bounding box:  xmin: 47680 ymin: 1703258 xmax: 1031401 ymax: 2677441
#> CRS:           NA
#> # A tibble: 85 × 2
#>    code_dept                                                            geometry
#>  * <fct>                                                          <MULTIPOLYGON>
#>  1 01        (((801150 2092615, 800669 2093190, 800688 2095430, 800780 2095795,…
#>  2 02        (((729326 2521619, 729320 2521230, 729280 2518544, 728751 2517520,…
#>  3 03        (((710830 2137350, 711746 2136617, 712430 2135212, 712070 2134132,…
#>  4 04        (((882701 1920024, 882408 1920733, 881778 1921200, 881526 1922332,…
#>  5 05        (((886504 1922890, 885733 1922978, 885479 1923276, 883061 1925266,…
#>  6 07        (((747008 1925789, 746630 1925762, 745723 1925138, 744216 1925236,…
#>  7 08        (((818893 2514767, 818614 2514515, 817900 2514467, 817327 2514945,…
#>  8 09        (((509103 1747787, 508820 1747513, 508154 1747093, 505861 1746627,…
#>  9 10        (((775400 2345600, 775068 2345397, 773587 2345177, 772940 2344780,…
#> 10 11        (((626230 1810121, 626269 1810496, 627494 1811321, 627681 1812424,…
#> # … with 75 more rows
…
