understanding-emerging-hotspots • sfdep
…
  group_by(time_period) |> 
  arrange(time_period, code_dept) |> 
  mutate(nb = include_self(st_contiguity(geometry)),
         wt = st_weights(nb),
         gi_star = local_gstar(crime_pers, nb, wt)) |> 
  group_by(code_dept) |> 
  summarise(trend = broom::tidy(Kendall::MannKendall(gi_star))) |> 
  tidyr::unnest(trend) |> 
  arrange(p.value)
#> Simple feature collection with 85 features and 6 fields
#> Geometry type: MULTIPOLYGON
#> Dimension:     XY
#> Bounding box:  xmin: 47680 ymin: 1703258 xmax: 1031401 ymax: 2677441
#> CRS:           NA
#> # A tibble: 85 × 7
#>    code_dept statistic p.value kendall_score denominator var_kendall_score
#>    <fct>         <dbl>   <dbl>         <dbl>       <dbl>             <dbl>
#>  1 14            0.644  0.0123            29          45               125
#>  2 39           -0.600  0.0200           -27          45               125
#>  3 61            0.556  0.0318            25          45               125
#>  4 22           -0.511  0.0491           -23          45               125
#>  5 01           -0.422  0.107            -19          45               125
#>  6 11           -0.422  0.107            -19          45               125
#>  7 70           -0.422  0.107            -19          45               125
#>  8 45            0.422  0.107             19          45               125
#>  9 77            0.422  0.107             19          45               125
#> 10 27            0.378  0.152             17          45               125
#> # … with 75 more rows, and 1 more variable: geometry <MULTIPOLYGON>

Here we use emerging hot spot analysis function from sfdep using no time lag

spt <- x |> 
  as_spacetime("code_dept", "time_period")

emerging_hotspot_analysis(spt, "crime_pers", k = 0) |> 
  arrange(p_value)
#> # A tibble: 85 × 4
#>    location    tau p_value classification     
#>    <fct>     <dbl>   <dbl> <chr>              
#>  1 14        0.644  0.0123 no pattern detected
#>  2 39       -0.600  0.0200 no pattern detected
#>  3 61        0.556  0.0318 no pattern detected
#>  4 22       -0.511  0.0491 no pattern detected
#>  5 01       -0.422  0.107  no pattern detected
#>  6 11       -0.422  0.107  sporadic coldspot  
#>  7 70       -0.422  0.107  sporadic hotspot   
#>  8 45        0.422  0.107  no pattern detected
#>  9 77        0.422  0.107  no pattern detected
#> 10 27        0.378  0.152  no pattern detected
#> # … with 75 more rows
…
