Version 0.2.0 • sfdep
…
# create spacetime object
bos <- spacetime(df, geo, ".region_id", "year")

bos
#> spacetime ────
#> Context:`data`
#> 168 locations `.region_id`
#> 10 time periods `year`
#> ── data context ────────────────────────────────────────────────────────────────
#> # A tibble: 1,680 × 5
#>    .region_id  ecometric  year value time_period
#>  * <chr>       <chr>     <int> <dbl> <date>     
#>  1 25025010405 Guns       2010  0.35 2010-01-01 
#>  2 25025010405 Guns       2011  0.89 2011-01-01 
#>  3 25025010405 Guns       2012  1.2  2012-01-01 
#>  4 25025010405 Guns       2013  0.84 2013-01-01 
#>  5 25025010405 Guns       2014  1.5  2014-01-01 
#>  6 25025010405 Guns       2015  1.15 2015-01-01 
#>  7 25025010405 Guns       2016  1.48 2016-01-01 
#>  8 25025010405 Guns       2017  1.64 2017-01-01 
#>  9 25025010405 Guns       2018  0.49 2018-01-01 
#> 10 25025010405 Guns       2019  0.17 2019-01-01 
#> # ℹ 1,670 more rows
…
These can be brought over to our data context for further use.

bos_nb <- bos_nb |> 
  set_wts() |> 
  set_nbs()

bos_nb
#> spacetime ────
#> Context:`data`
#> 168 locations `.region_id`
#> 10 time periods `year`
#> ── data context ────────────────────────────────────────────────────────────────
#> # A tibble: 1,680 × 7
#>    .region_id  ecometric  year value time_period wt        nb       
#>    <chr>       <chr>     <int> <dbl> <date>      <list>    <list>   
#>  1 25025010405 Guns       2010  0.35 2010-01-01  <dbl [8]> <int [8]>
#>  2 25025010404 Guns       2010  0    2010-01-01  <dbl [3]> <int [3]>
#>  3 25025010801 Guns       2010  0    2010-01-01  <dbl [4]> <int [4]>
#>  4 25025010702 Guns       2010  0.46 2010-01-01  <dbl [5]> <int [5]>
#>  5 25025010204 Guns       2010  0    2010-01-01  <dbl [3]> <int [3]>
#>  6 25025010802 Guns       2010  0    2010-01-01  <dbl [4]> <int [4]>
#>  7 25025010104 Guns       2010  0    2010-01-01  <dbl [5]> <int [5]>
#>  8 25025000703 Guns       2010  0    2010-01-01  <dbl [3]> <int [3]>
#>  9 25025000504 Guns       2010  0.22 2010-01-01  <dbl [5]> <int [5]>
#> 10 25025000704 Guns       2010  0    2010-01-01  <dbl [4]> <int [4]>
#> # ℹ 1,670 more rows
…
bos_gs <- bos_nb |> 
  activate("data") |> 
  filter(ecometric == "Guns") |> 
  group_by(year) |> 
  mutate(g = local_g(value, nb, wt))

bos_gs
#> spacetime ────
#> Context:`data`
#> 168 locations `.region_id`
#> 10 time periods `year`
#> ── data context ────────────────────────────────────────────────────────────────
#> # A tibble: 1,680 × 8
#> # Groups:   year [10]
#>    .region_id  ecometric  year value time_period wt        nb             g
#>  * <chr>       <chr>     <int> <dbl> <date>      <list>    <list>     <dbl>
#>  1 25025010405 Guns       2010  0.35 2010-01-01  <dbl [8]> <int [8]> -0.987
#>  2 25025010404 Guns       2010  0    2010-01-01  <dbl [3]> <int [3]> -0.930
#>  3 25025010801 Guns       2010  0    2010-01-01  <dbl [4]> <int [4]> -1.08 
#>  4 25025010702 Guns       2010  0.46 2010-01-01  <dbl [5]> <int [5]> -1.04 
#>  5 25025010204 Guns       2010  0    2010-01-01  <dbl [3]> <int [3]> -0.864
#>  6 25025010802 Guns       2010  0    2010-01-01  <dbl [4]> <int [4]> -1.08 
#>  7 25025010104 Guns       2010  0    2010-01-01  <dbl [5]> <int [5]> -1.33 
#>  8 25025000703 Guns       2010  0    2010-01-01  <dbl [3]> <int [3]> -1.02 
#>  9 25025000504 Guns       2010  0.22 2010-01-01  <dbl [5]> <int [5]> -1.34 
#> 10 25025000704 Guns       2010  0    2010-01-01  <dbl [4]> <int [4]> -1.25 
#> # ℹ 1,670 more rows
…
