Compute Local Geary statistic — local_c • sfdep
…
guerry %>%
  dplyr::transmute(nb = st_contiguity(geometry),
                   wt = st_weights(nb),
                   geary = local_c_perm(
                     x = list(crime_pers, literacy),
                     nb, wt
                   )) %>%
  tidyr::unnest(geary)
#> Simple feature collection with 85 features and 12 fields
#> Geometry type: MULTIPOLYGON
#> Dimension:     XY
#> Bounding box:  xmin: 47680 ymin: 1703258 xmax: 1031401 ymax: 2677441
#> CRS:           NA
#> # A tibble: 85 × 13
#>    nb      wt        ci cluster  e_ci var_ci   z_ci   p_ci p_ci_sim p_folded_sim
#>    <nb>    <list> <dbl> <fct>   <dbl>  <dbl>  <dbl>  <dbl>    <dbl>        <dbl>
#>  1 <int [… <dbl … 1.09  Positi…  1.79  0.508 -0.989 0.323     0.328        0.164
#>  2 <int [… <dbl … 0.557 Positi…  1.57  0.208 -2.23  0.0256    0.024        0.012
#>  3 <int [… <dbl … 0.571 Positi…  2.56  0.629 -2.51  0.0120    0.004        0.002
#>  4 <int [… <dbl … 0.525 Positi…  1.54  0.479 -1.46  0.143     0.076        0.038
#>  5 <int [… <dbl … 1.69  Positi…  2.49  1.11  -0.762 0.446     0.472        0.236
#>  6 <int [… <dbl … 0.803 Positi…  2.23  0.513 -1.99  0.0464    0.024        0.012
#>  7 <int [… <dbl … 1.99  Positi…  4.56  1.88  -1.87  0.0613    0.056        0.028
#>  8 <int [… <dbl … 1.09  Positi…  3.59  2.25  -1.67  0.0958    0.028        0.014
#>  9 <int [… <dbl … 0.547 Positi…  1.65  0.335 -1.90  0.0570    0.024        0.012
#> 10 <int [… <dbl … 0.557 Positi…  1.24  0.266 -1.32  0.186     0.18         0.09 
#> # … with 75 more rows, and 3 more variables: skewness <dbl>, kurtosis <dbl>,
#> #   geometry <MULTIPOLYGON>
…
