Local Neighbor Match Test — nb_match_test • sfdep
…
    Examples

guerry %>%
  dplyr::transmute(nb = st_knn(geometry, k = 10),
         nmt = nb_match_test(list(crime_pers, literacy, suicides),
                             nb, nsim = 999)) %>%
  tidyr::unnest(nmt)
#> ! Polygon provided. Using centroid.
#> Loading required namespace: dbscan
#> Simple feature collection with 85 features and 6 fields
#> Geometry type: MULTIPOLYGON
#> Dimension:     XY
#> Bounding box:  xmin: -5.139026 ymin: 42.33349 xmax: 8.23032 ymax: 51.08939
#> Geodetic CRS:  WGS 84
#> # A tibble: 85 × 7
#>    nb     n_shared nb_matches knn_nb probability p_sim                  geometry
#>    <nb>      <int> <list>     <list>       <dbl> <dbl>        <MULTIPOLYGON [°]>
#>  1 <int …        1 <int [1]>  <int …     0.400   0.676 (((4.92452 45.80404, 4.9…
#>  2 <int …        4 <int [4]>  <int …     0.0141  0.022 (((4.126445 49.67821, 4.…
#>  3 <int …        4 <int [4]>  <int …     0.0141  0.023 (((3.773349 46.22719, 3.…
#>  4 <int …        4 <int [4]>  <int …     0.0141  0.015 (((5.872688 44.22421, 5.…
#>  5 <int …        0 <int [0]>  <int …     0.260   0.263 (((5.921825 44.24841, 5.…
#>  6 <int …        0 <int [0]>  <int …     0.260   0.264 (((4.177986 44.31775, 4.…
#>  7 <int …        5 <int [5]>  <int …     0.00147 0.002 (((5.361486 49.59208, 5.…
#>  8 <int …        5 <int [5]>  <int …     0.00147 0.002 (((1.229289 42.72774, 1.…
#>  9 <int …        3 <int [3]>  <int …     0.0782  0.084 (((4.690867 48.08597, 4.…
#> 10 <int …        4 <int [4]>  <int …     0.0141  0.009 (((2.659241 43.29298, 2.…
#> # … with 75 more rows
…
