The Basics of sfdep • sfdep
…
These lists can be created line by line or within a pipe. The most
common usecase is likely via a dplyr pipeline.

guerry_nb <- guerry %>% 
  mutate(nb = st_contiguity(geometry),
         wt = st_weights(nb),
         .before = 1) # to put them in the front

guerry_nb
#> Simple feature collection with 85 features and 28 fields
#> Geometry type: MULTIPOLYGON
#> Dimension:     XY
#> Bounding box:  xmin: 47680 ymin: 1703258 xmax: 1031401 ymax: 2677441
#> CRS:           NA
#> # A tibble: 85 × 29
#>    nb        wt     code_dept count ave_i…¹  dept region depar…² crime…³ crime…⁴
#>  * <nb>      <list> <fct>     <dbl>   <dbl> <int> <fct>  <fct>     <int>   <int>
#>  1 <int [4]> <dbl>  01            1      49     1 E      Ain       28870   15890
#>  2 <int [6]> <dbl>  02            1     812     2 N      Aisne     26226    5521
#>  3 <int [6]> <dbl>  03            1    1418     3 C      Allier    26747    7925
#>  4 <int [4]> <dbl>  04            1    1603     4 E      Basses…   12935    7289
#>  5 <int [3]> <dbl>  05            1    1802     5 E      Hautes…   17488    8174
#>  6 <int [7]> <dbl>  07            1    2249     7 S      Ardeche    9474   10263
#>  7 <int [3]> <dbl>  08            1   35395     8 N      Ardenn…   35203    8847
#>  8 <int [3]> <dbl>  09            1    2526     9 S      Ariege     6173    9597
#>  9 <int [5]> <dbl>  10            1   34410    10 E      Aube      19602    4086
#> 10 <int [5]> <dbl>  11            1    2807    11 S      Aude      15647   10431
#> # … with 75 more rows, 19 more variables: literacy <int>, donations <int>,
#> #   infants <int>, suicides <int>, main_city <ord>, wealth <int>,
#> #   commerce <int>, clergy <int>, crime_parents <int>, infanticide <int>,
#> #   donation_clergy <int>, lottery <int>, desertion <int>, instruction <int>,
#> #   prostitutes <int>, distance <dbl>, area <int>, pop1831 <dbl>,
#> #   geometry <MULTIPOLYGON>, and abbreviated variable names ¹​ave_id_geo,
#> #   ²​department, ³​crime_pers, ⁴​crime_prop
…
For example to calculate the Local Moran we use the function
local_moran()

lisa <- guerry_nb %>% 
  mutate(local_moran = local_moran(crime_pers, nb, wt, nsim = 199),
         .before = 1)

lisa
#> Simple feature collection with 85 features and 29 fields
#> Geometry type: MULTIPOLYGON
#> Dimension:     XY
#> Bounding box:  xmin: 47680 ymin: 1703258 xmax: 1031401 ymax: 2677441
#> CRS:           NA
#> # A tibble: 85 × 30
#>    local_moran$ii nb    wt    code_…¹ count ave_i…²  dept region depar…³ crime…⁴
#>  *          <dbl> <nb>  <lis> <fct>   <dbl>   <dbl> <int> <fct>  <fct>     <int>
#>  1         0.522  <int> <dbl> 01          1      49     1 E      Ain       28870
#>  2         0.828  <int> <dbl> 02          1     812     2 N      Aisne     26226
#>  3         0.804  <int> <dbl> 03          1    1418     3 C      Allier    26747
#>  4         0.742  <int> <dbl> 04          1    1603     4 E      Basses…   12935
#>  5         0.231  <int> <dbl> 05          1    1802     5 E      Hautes…   17488
#>  6         0.839  <int> <dbl> 07          1    2249     7 S      Ardeche    9474
#>  7         0.623  <int> <dbl> 08          1   35395     8 N      Ardenn…   35203
#>  8         1.65   <int> <dbl> 09          1    2526     9 S      Ariege     6173
#>  9        -0.0198 <int> <dbl> 10          1   34410    10 E      Aube      19602
#> 10         0.695  <int> <dbl> 11          1    2807    11 S      Aude      15647
#> # … with 75 more rows, 31 more variables: local_moran$eii <dbl>, $var_ii <dbl>,
#> #   $z_ii <dbl>, $p_ii <dbl>, $p_ii_sim <dbl>, $p_folded_sim <dbl>,
#> #   $skewness <dbl>, $kurtosis <dbl>, $mean <fct>, $median <fct>, $pysal <fct>,
#> #   crime_prop <int>, literacy <int>, donations <int>, infants <int>,
#> #   suicides <int>, main_city <ord>, wealth <int>, commerce <int>,
#> #   clergy <int>, crime_parents <int>, infanticide <int>,
#> #   donation_clergy <int>, lottery <int>, desertion <int>, instruction <int>, …

Now that we have a data frame, we need to unnest it.

lisa %>% 
  tidyr::unnest(local_moran)
#> Simple feature collection with 85 features and 40 fields
#> Geometry type: MULTIPOLYGON
#> Dimension:     XY
#> Bounding box:  xmin: 47680 ymin: 1703258 xmax: 1031401 ymax: 2677441
#> CRS:           NA
#> # A tibble: 85 × 41
#>         ii      eii  var_ii   z_ii    p_ii p_ii_…¹ p_fol…² skewn…³ kurto…⁴ mean 
#>      <dbl>    <dbl>   <dbl>  <dbl>   <dbl>   <dbl>   <dbl>   <dbl>   <dbl> <fct>
#>  1  0.522  -0.0513  3.90e-1  0.919 0.358      0.34   0.17  -0.0181  -0.178 High…
#>  2  0.828  -0.0185  1.43e-1  2.24  0.0252     0.03   0.015  0.157   -0.546 High…
#>  3  0.804  -0.0251  1.55e-1  2.10  0.0354     0.03   0.015  0.0437  -0.502 High…
#>  4  0.742  -0.0309  2.27e-1  1.62  0.105      0.1    0.05  -0.268    0.326 Low-…
#>  5  0.231  -0.0184  4.15e-2  1.23  0.220      0.26   0.13  -0.123   -0.274 Low-…
#>  6  0.839  -0.00741 2.75e-1  1.61  0.107      0.08   0.04  -0.154   -0.538 Low-…
#>  7  0.623   0.0727  1.24e+0  0.494 0.621      0.65   0.325 -0.0350  -0.347 High…
#>  8  1.65   -0.139   1.13e+0  1.68  0.0928     0.09   0.045  0.0235  -0.419 Low-…
#>  9 -0.0198 -0.00251 5.24e-4 -0.753 0.451      0.44   0.22  -0.253   -0.591 Low-…
#> 10  0.695  -0.0347  7.09e-2  2.74  0.00610    0.02   0.01   0.190    0.147 Low-…
#> # … with 75 more rows, 31 more variables: median <fct>, pysal <fct>, nb <nb>,
#> #   wt <list>, code_dept <fct>, count <dbl>, ave_id_geo <dbl>, dept <int>,
#> #   region <fct>, department <fct>, crime_pers <int>, crime_prop <int>,
#> #   literacy <int>, donations <int>, infants <int>, suicides <int>,
#> #   main_city <ord>, wealth <int>, commerce <int>, clergy <int>,
#> #   crime_parents <int>, infanticide <int>, donation_clergy <int>,
#> #   lottery <int>, desertion <int>, instruction <int>, prostitutes <int>, …
…
Additionally, for other LISAs that can take any number of inputs,
e.g. 3 or more numeric variables, we provide this as a list. Take for
example the Local C statistic.

guerry_nb %>% 
  mutate(local_c = local_c_perm(list(crime_pers, wealth), nb, wt), 
         .before = 1) %>% 
  tidyr::unnest(local_c)
#> Simple feature collection with 85 features and 38 fields
#> Geometry type: MULTIPOLYGON
#> Dimension:     XY
#> Bounding box:  xmin: 47680 ymin: 1703258 xmax: 1031401 ymax: 2677441
#> CRS:           NA
#> # A tibble: 85 × 39
#>       ci cluster   e_ci var_ci   z_ci   p_ci p_ci_sim p_folde…¹ skewness kurto…²
#>    <dbl> <fct>    <dbl>  <dbl>  <dbl>  <dbl>    <dbl>     <dbl>    <dbl>   <dbl>
#>  1 1.53  Positive  2.45  0.686 -1.11  0.268     0.28      0.14   0.301   -0.225 
#>  2 0.500 Positive  1.66  0.352 -1.95  0.0507    0.012     0.006  0.464    0.0915
#>  3 0.642 Positive  1.66  0.249 -2.04  0.0410    0.04      0.02   0.144   -0.0843
#>  4 0.324 Positive  2.36  0.841 -2.22  0.0267    0.012     0.006 -0.00289 -0.349 
#>  5 0.298 Positive  2.26  0.920 -2.05  0.0404    0.016     0.008  0.178   -0.461 
#>  6 1.60  Positive  3.29  0.732 -1.98  0.0482    0.024     0.012  0.117   -0.113 
#>  7 2.04  Positive  3.31  1.65  -0.983 0.326     0.336     0.168  0.399   -0.215 
#>  8 2.20  Positive  3.49  1.92  -0.929 0.353     0.376     0.188  0.316   -0.296 
#>  9 0.507 Positive  1.71  0.416 -1.87  0.0619    0.032     0.016  0.479    0.367 
#> 10 1.46  Positive  1.74  0.383 -0.460 0.645     0.644     0.322  0.462    0.343 
#> # … with 75 more rows, 29 more variables: nb <nb>, wt <list>, code_dept <fct>,
#> #   count <dbl>, ave_id_geo <dbl>, dept <int>, region <fct>, department <fct>,
#> #   crime_pers <int>, crime_prop <int>, literacy <int>, donations <int>,
#> #   infants <int>, suicides <int>, main_city <ord>, wealth <int>,
#> #   commerce <int>, clergy <int>, crime_parents <int>, infanticide <int>,
#> #   donation_clergy <int>, lottery <int>, desertion <int>, instruction <int>,
#> #   prostitutes <int>, distance <dbl>, area <int>, pop1831 <dbl>, …
…
