Emerging Hot Spot Analysis • sfdep
…
donat_gistar <- guerry_nb |> 
  transmute(gi_star = local_gstar_perm(donations, nb, wt, nsim = 199)) |> 
  tidyr::unnest(gi_star)

donat_gistar
#> Simple feature collection with 85 features and 8 fields
#> Geometry type: MULTIPOLYGON
#> Dimension:     XY
#> Bounding box:  xmin: 47680 ymin: 1703258 xmax: 1031401 ymax: 2677441
#> CRS:           NA
#> # A tibble: 85 × 9
#>    gi_star   e_gi     var_gi p_value p_sim p_folded_sim skewness kurtosis
#>      <dbl>  <dbl>      <dbl>   <dbl> <dbl>        <dbl>    <dbl>    <dbl>
#>  1  -1.43  0.0113 0.0000123   0.152   0.08        0.04     1.00    2.34  
#>  2  -0.419 0.0115 0.00000892  0.675   0.74        0.37     0.681   0.798 
#>  3   0.633 0.0117 0.0000110   0.527   0.48        0.24     0.950   1.31  
#>  4  -1.73  0.0117 0.0000122   0.0838  0.04        0.02     0.846   1.14  
#>  5  -1.00  0.0116 0.0000185   0.315   0.28        0.14     1.10    1.80  
#>  6  -2.21  0.0122 0.0000109   0.0273  0.01        0.005    0.685   0.216 
#>  7  -0.311 0.0116 0.0000173   0.756   0.86        0.43     0.636  -0.0266
#>  8  -0.650 0.0119 0.0000234   0.516   0.56        0.28     1.16    1.54  
#>  9  -1.38  0.0121 0.0000141   0.168   0.11        0.055    0.841   1.16  
#> 10  -1.33  0.0121 0.0000128   0.182   0.17        0.085    0.730   0.328 
#> # … with 75 more rows, and 1 more variable: geometry <MULTIPOLYGON>
…
# Create spacetime object called `bos`
bos <- spacetime(df, geo, 
                 .loc_col = ".region_id",
                 .time_col = "time_period")

bos
#> spacetime ────
#> Context:`data`
#> 168 locations `.region_id`
#> 10 time periods `time_period`
#> ── data context ────────────────────────────────────────────────────────────────
#> # A tibble: 1,680 × 5
#>    .region_id  ecometric  year value time_period
#>  * <chr>       <chr>     <int> <dbl> <date>     
#>  1 25025010405 Guns       2010  0.35 2010-01-01 
#>  2 25025010405 Guns       2011  0.89 2011-01-01 
#>  3 25025010405 Guns       2012  1.2  2012-01-01 
#>  4 25025010405 Guns       2013  0.84 2013-01-01 
#>  5 25025010405 Guns       2014  1.5  2014-01-01 
#>  6 25025010405 Guns       2015  1.15 2015-01-01 
#>  7 25025010405 Guns       2016  1.48 2016-01-01 
#>  8 25025010405 Guns       2017  1.64 2017-01-01 
#>  9 25025010405 Guns       2018  0.49 2018-01-01 
#> 10 25025010405 Guns       2019  0.17 2019-01-01 
#> # … with 1,670 more rows
…
This dataset now has neighbors and weights for each time-slice. We
can use these new columns to manually calculate the local Gi* for each
location. We can do this by grouping by time_period and
using local_gstar_perm(). After which, we unnest the new
data frame column gi_star.

gi_stars <- bos_nb |> 
  group_by(time_period) |> 
  mutate(gi_star = local_gstar_perm(value, nb, wt)) |> 
  tidyr::unnest(gi_star)

gi_stars |> 
  select(.region_id, time_period, gi_star, p_folded_sim)
#> # A tibble: 1,680 × 4
#> # Groups:   time_period [10]
#>    .region_id  time_period gi_star p_folded_sim
#>    <chr>       <date>        <dbl>        <dbl>
#>  1 25025010405 2010-01-01   -1.03         0.154
#>  2 25025010404 2010-01-01   -1.31         0.048
#>  3 25025010801 2010-01-01   -1.44         0.034
#>  4 25025010702 2010-01-01   -0.858        0.186
#>  5 25025010204 2010-01-01   -1.38         0.042
#>  6 25025010802 2010-01-01   -1.38         0.026
#>  7 25025010104 2010-01-01   -1.66         0.016
#>  8 25025000703 2010-01-01   -1.43         0.026
#>  9 25025000504 2010-01-01   -1.36         0.058
#> 10 25025000704 2010-01-01   -1.62         0.006
#> # … with 1,670 more rows
…
